,CBNU-01,CHARLES-MALTA-01,CHARLES-SAARLAND-02,CMU-02,CMU-DataAug-01,CMU-Monolingual-01,CMU-PolyGlot-01,EDINBURGH-01,EDINBURGH-02,ITU-01,NLPCUBE-01,OHIOSTATE-01,RUG-01,RUG-02,UFALPRAGUE-01,UNTHILTLING-02,BASELINE-TEST-00
UD_Afrikaans-AfriBooms,98.66,60,99.36,97.16,97.35,,,97.65,97.83,96.64,98.51,97.06,98.14,96.94,99.4,57.22,92.87
UD_Akkadian-PISANDUB,81.77,39.19,89.06,79.17,78.65,,,79.58,,65.8,81.46,84.38,85.42,85.42,84.9,39.19,80.41
UD_Amharic-ATT,92.41,42.42,91.34,89.8,90.91,,,90.67,,91.23,91.76,91.22,91.52,91.52,93.15,37.2,87.57
UD_Ancient_Greek-Perseus,91.58,61.48,96.26,91.97,91.88,,,94.83,95.19,93.99,95.44,93.94,95.69,94.64,96.72,62.43,88.97
UD_Ancient_Greek-PROIEL,93.86,73.1,97.68,94.21,94.67,94.48,,96.63,96.97,96.58,97.13,92.88,97.37,96.59,97.88,63.83,93.55
UD_Arabic-PADT,96.32,69.81,97.65,95.54,95.36,,,95.16,95.92,95.26,96.45,95.55,96.34,95.38,97.58,64.61,91.82
UD_Arabic-PUD,91.27,39.46,94.09,84.79,89,,,88.91,,87.74,89.39,88.42,94.66,89.59,94.47,56.75,86.35
UD_Armenian-ArmTDP,84.91,48.83,96.66,86.58,88.17,88.06,,93.32,,87.15,91.92,91.48,91.98,90.64,96.33,61.19,86.74
UD_Bambara-CRB,94.74,56.43,95.34,94.22,94.86,,,93.62,,94.11,95.05,94.38,93.77,94.66,95.55,42.76,88.94
UD_Basque-BDT,92.8,63.73,96.3,90.33,87.91,,,95.3,95.15,94.51,94.42,93.86,95.38,94.11,95.79,0,87.54
UD_Belarusian-HSE,65.26,36.44,95.68,73.52,84.99,83.62,85.45,86.16,,73.27,87.26,87.42,90.42,90.42,94.45,58.96,78.8
UD_Breton-KEB,90.13,44.55,91.77,87.94,88.07,,,91.52,,88.05,90.66,91.81,89.16,89.47,93.79,49.85,88.34
UD_Bulgarian-BTB,98,72.07,99.18,96.34,96.37,,,97.92,98.02,97.86,98.27,96.99,98.79,97.66,99.06,67.73,93.85
UD_Buryat-BDT,82.93,38.08,88.42,78.54,78.66,,,86.98,,81.69,84.26,88.38,87.28,87.28,90.5,52.18,80.94
UD_Cantonese-HK,87.4,25.76,92.83,86.01,86.82,,,86.36,,84.9,82.5,86.36,87.5,87.5,88.64,38.2,76.8
UD_Catalan-AnCora,97.71,86.79,99.45,98.67,98.24,,,98.25,98.66,98.69,98.94,98.52,99.04,98.54,99.35,56.79,95.73
UD_Chinese-CFL,90.37,24.71,91.5,85,86.96,,,88.1,,82.42,85.64,88.18,88.6,85.27,93.21,38.94,82.05
UD_Chinese-GSD,94.42,42.56,97.04,90.97,90.56,,,90.95,91.78,90.32,92.39,91.35,94.73,89.54,96.58,40.57,83.79
UD_Coptic-Scriptorium,95.93,63.44,94.81,95.48,95.33,,,95.35,,94.05,96.62,95.92,96.31,96.31,97.17,45.14,93.56
UD_Croatian-SET,94.64,69.55,97.82,93.29,93.91,,,93.69,94.85,95.45,95.91,94.42,96.02,93,97.7,62.45,90.39
UD_Czech-CAC,96.86,79.82,99.48,96.91,96.99,,,96.34,,97.51,98.34,97.4,98.36,97.16,99.2,67.65,93.94
UD_Czech-CLTT,94.98,44.82,98.2,92.83,96.22,,,94.88,,93.82,95.21,96.02,96.61,96.61,98.32,70.23,92.61
UD_Czech-FicTree,95.6,71.12,98.9,93.56,95.49,,,95.97,,96.12,96.91,95.84,97.57,95.34,98.61,63.01,90.32
UD_Czech-PDT,95.84,80.7,99.47,96.08,73.56,,,96.22,97.53,95.16,98.41,97.81,97.97,96.49,99.27,67.08,94.23
UD_Czech-PUD,89.38,42.29,97.43,71.29,89.37,,,90.99,,87.36,89.66,88.86,96.68,94.39,98.23,50.43,85.73
UD_Danish-DDT,96.96,65.61,98.68,94.67,93.61,,,95.49,95.4,95.17,96.71,95.24,97.29,92.54,98.41,60.16,90.19
UD_Dutch-Alpino,97.18,79.69,98.62,95.35,95.4,95.44,,95.7,96.12,96.45,97.01,95.83,96.05,95.78,98.27,54.15,91.25
UD_Dutch-LassySmall,97,63.9,98.83,93.88,94.2,,,95.57,,95.23,96.2,94.55,94.26,94.26,98.27,50.27,87.97
UD_English-EWT,97.01,81.79,98.52,94.99,95.4,,,95.43,,95.81,96.68,95.41,97.19,94.17,98.33,50.26,90.91
UD_English-GUM,96.54,61.62,98.11,94.76,94.47,,,94.79,,95.2,95.62,94.72,95.23,91.42,98.01,54.27,89.81
UD_English-LinES,97.16,69.93,98.3,94.67,94.93,94.93,,95.47,95.82,95.37,96.32,94.87,97.32,95.38,98.17,57.6,90.58
UD_English-ParTUT,95.56,59.61,97.35,92.21,92.61,,,92.15,,93.14,94.2,92.61,96.18,94.48,97.25,52.93,89.46
UD_English-PUD,94.95,44.03,97.58,90.24,91.6,,,92.42,,89.65,92.08,91.37,96.87,91.65,97.35,52.09,87.7
UD_Estonian-EDT,96.45,75.58,98.69,95.12,94.93,,,97.13,,96.69,97.62,96.55,97.24,96.32,98.38,64.16,91.52
UD_Faroese-OFT,88.28,57.7,93.47,82.7,87.87,,,89.06,,87.95,90.6,90.24,90.36,90.36,93.98,56.57,85.73
UD_Finnish-FTB,95.59,61.96,98.38,92.37,90.7,,,96.23,96.41,95.92,96.56,95.18,97.37,95.81,97.96,63.61,89.08
UD_Finnish-PUD,93.32,40.57,97.98,86.42,86.77,,,92.55,,91.58,92.02,91.18,97.52,96.25,97.56,53.15,87.77
UD_Finnish-TDT,96.22,67.39,98.54,92.95,92.2,92.36,,96.95,,96.51,96.96,95.86,97.52,96.2,98.4,65,90.66
UD_French-GSD,97.98,84.51,99.07,97.49,97.32,,,97.67,97.92,97.98,98.08,97.53,98.43,97.72,98.76,53.97,94.63
UD_French-ParTUT,96.54,63.21,97.95,94.9,96.12,,,96.29,,94.81,96.31,95.38,97.31,96.98,97.97,56.39,92.19
UD_French-Sequoia,98.13,72.35,98.99,96.64,96.96,,,97.72,,97.05,97.91,97.77,98.77,96.86,99.11,59.26,93.04
UD_French-Spoken,97.31,66.17,98.65,96.94,96.08,,,96.26,,96.77,97.01,95.84,97.81,97.25,98.18,15.01,94.8
UD_Galician-CTG,97.73,75.41,98.29,96.92,96.32,,,97.23,,96.66,97.43,96.58,97.59,96.97,98.14,23.63,91.35
UD_Galician-TreeGal,95.58,52.78,97.88,92.36,93.25,,,94.59,,91.95,93.95,94.1,96.98,95.31,97.59,51.55,89.33
UD_German-GSD,93.73,78.39,95.9,92.68,92.5,92.37,,91.08,93.51,93.73,94.45,92.96,93.71,92.48,95.71,53.41,88.91
UD_Gothic-PROIEL,91.77,62.9,96.64,88.07,92.47,,,95.11,,94.31,95.33,94.41,94.39,94.39,96.31,66.63,90.02
UD_Greek-GDT,97.26,65.34,98.23,95.53,96,95.43,,96.42,,96.08,97.09,97.06,96.9,96.9,98.37,65.37,93.45
UD_Hebrew-HTB,97.22,69.71,98.47,95.55,95.65,,,96.42,96.68,95.75,96.86,95.77,97.35,96.16,98.23,60.01,91.79
UD_Hindi-HDTB,96.65,84.38,98.04,96.37,96.85,96.78,,95.57,96.23,96.57,97.05,95.99,97.3,96.55,97.82,56.54,93.92
UD_Hungarian-Szeged,94.63,46.81,97.51,89.77,90.13,90.25,,94,94.25,91.89,95.19,94.3,92.65,92.65,98.25,50.04,87.62
UD_Indonesian-GSD,93.15,52.13,95.16,92.07,93.11,,,93.78,93.76,92.96,93.54,92.42,93.04,93.04,94.78,49.61,86.12
UD_Irish-IDT,88.35,40.44,90.04,82.16,84.11,,,88.78,,70.83,88.44,85.14,90.82,84.23,91.46,46.3,81.58
UD_Italian-ISDT,98.05,82.69,99.19,97.48,97.27,,,97.94,,97.93,98.3,97.47,98.01,98.01,98.94,62.11,94.46
UD_Italian-ParTUT,97.59,73.55,99.2,95.91,96.39,,,97.27,,96.94,97.23,97.26,98.53,97.81,99.21,62.49,93.88
UD_Italian-PoSTWITA,96.33,70.15,97.9,93.66,93.02,,,95.41,,94.48,95.49,94.15,96.64,94.81,97.59,50.69,87.98
UD_Italian-PUD,96.4,64.24,98.42,91.64,92.46,,,93.92,,94.09,94.87,94.34,97.37,95.79,96.08,53.78,92.24
UD_Japanese-GSD,97.46,79.27,98.21,96.17,96.4,,,96.6,96.8,95.9,96.85,96.24,97.43,95.43,97.93,28.87,90.64
UD_Japanese-Modern,96.74,63.61,97.5,94.46,95.32,,,95.91,,94.13,95.41,96.34,95.52,95.88,96.93,31.16,95.64
UD_Japanese-PUD,97.65,55.59,98.39,95.76,95.44,,,96.6,,94.13,95.89,96.88,98.26,97.35,98.49,24.11,89.64
UD_Komi_Zyrian-IKDP,42.98,32.21,75.05,37.69,62.27,,,71.84,,36.09,49.06,66.92,79.55,80.68,82.99,40.25,59.52
UD_Komi_Zyrian-Lattice,65.07,34.75,78.01,39.76,65.23,,,76.54,,54.93,77.27,68.59,82.99,82.99,82.3,41.6,74.12
UD_Korean-GSD,95.25,59.84,96.27,92.84,91.68,,,93.99,94.01,93.61,93.88,93.2,95.35,93.75,96.25,42.89,85.9
UD_Korean-Kaist,96.3,62.26,97.58,95.69,94.99,,,96.31,,95.81,95.94,95.53,96.46,95.91,97.04,31.59,89.45
UD_Korean-PUD,93.99,42.65,96.76,89.69,89.28,,,92.73,,89.7,90.51,91.67,95.74,92.6,88.37,55.18,88.15
UD_Kurmanji-MG,87.13,48.17,90.26,85.82,87.81,,,88.62,,87.18,89.6,89.09,89.44,88.13,91.28,54.67,86.54
UD_Latin-ITTB,96.62,73.71,98.96,96.58,97.11,,,96.41,,97.26,97.95,96.99,97.77,97.31,98.59,67.95,93.12
UD_Latin-Perseus,88.54,32.14,93.79,77.49,85.92,,,88.61,,84.15,85.87,85.71,92.82,89,94.65,55.46,78.91
UD_Latin-PROIEL,95.16,67.44,97.87,91.5,94.19,,,95.27,,95.13,96.01,94.75,96.6,95.18,97.27,66.29,91.42
UD_Latvian-LVTB,95.1,65.13,98.04,93.42,93.08,,,95.55,,95.98,96.55,95.23,97.06,94.74,97.85,64.8,89.55
UD_Lithuanian-HSE,57.49,28.57,87.97,58.5,74.56,,,82.64,,70.01,0,79.42,80.98,80.98,87.78,44.74,67.39
UD_Marathi-UFAL,59.4,37.13,80.19,56.62,73.04,73.13,74.61,73.71,,64.86,70.04,75.23,74.68,74.68,77.28,38.64,69.71
UD_Naija-NSC,93.17,38.18,95.31,90.63,92.71,,,92.86,,91.9,0,92.61,92.35,92.35,95.47,13.08,76.73
UD_North_Sami-Giella,91.9,46.31,95.33,87.76,88.65,,,92.76,,92.29,92.82,93.44,91.43,91.43,94.28,60.17,85.45
UD_Norwegian-Bokmaal,97.4,83.01,99.02,96.99,96.51,96.46,,97.15,,97.24,97.93,96.92,97.05,97.05,98.77,62.89,93.17
UD_Norwegian-Nynorsk,96.6,81.82,98.97,96.28,96.33,,,96.6,96.8,97.03,97.59,96.67,96.27,96.27,98.45,56.77,92.85
UD_Norwegian-NynorskLIA,94.29,41.25,97.39,91.52,94.89,,,93.78,,92.59,94.36,94.86,96.09,92.74,96.71,57.18,89.21
UD_Old_Church_Slavonic-PROIEL,91.82,64.19,96.45,92.39,94.03,,,96.03,,95.52,95.94,94.25,95.48,95.48,97.13,56.88,91.17
UD_Persian-Seraji,97.7,76.96,98.67,96.6,96.69,96.69,,97.24,97.45,97.15,97.6,97.05,98.23,97.25,98.68,63.68,93.76
UD_Polish-LFG,96.23,66.24,98.86,93.88,93.65,,,95.47,,95.4,96.61,95.12,97.39,96.65,98.61,59.18,88.73
UD_Polish-SZ,94.58,54.91,98.11,88.24,90.88,,,93.38,93.78,93.25,94.39,92.38,96.1,95.27,97.76,57.47,86.24
UD_Portuguese-Bosque,96.48,72.86,98.26,95.92,95.5,,,96.08,,96.41,97.08,95.74,97.53,96.37,98.22,51.79,92.36
UD_Portuguese-GSD,97.14,68.01,99.1,98.06,97.54,97.53,,97.87,96.97,98.05,98.34,97.91,98.37,97.56,98.96,31.11,91.73
UD_Romanian-Nonstandard,95.6,79.16,97.65,95.7,95.29,,,95.23,,96.28,96.66,95.26,96.34,96.07,97.33,57.44,91.7
UD_Romanian-RRT,97.99,80.18,98.89,96.47,96.63,,,97.32,,97.6,97.9,97.33,98.42,97.52,98.72,68.17,93.88
UD_Russian-GSD,94.2,57.3,97.95,89.28,92.12,91.97,,93.43,,92.96,94.03,92.92,96.05,92.78,97.64,55.75,87.49
UD_Russian-PUD,90.15,41.97,96.27,84.34,87.49,,,90.32,,87.79,89.09,88.74,95.48,89.04,95.83,49.66,84.31
UD_Russian-SynTagRus,96.46,78.53,99.23,96.84,96.5,,,96.82,,95.05,98.16,97.5,97.71,96.63,99.06,65.83,92.73
UD_Russian-Taiga,84.11,32.5,94.88,74.9,81.25,,,85.96,,80.96,85.07,86.57,92.79,89.8,95.56,11.76,76.77
UD_Sanskrit-UFAL,46.19,44.54,69.52,35.26,68.08,67.67,66.21,58.26,,45.49,63.34,62.34,69.63,69.63,68.69,45.27,57.8
UD_Serbian-SET,95.34,64.67,98.64,93.78,95.29,,,95.49,,96.21,96.81,96.15,96.27,95.9,98.41,0,91.75
UD_Slovak-SNK,94.68,60.9,98.24,91.18,92.83,,,94.96,,93.88,95.76,94.76,96.75,93.07,97.93,58.76,88.04
UD_Slovenian-SSJ,95.27,65,98.8,93.98,93.55,,,94.51,,96.05,96.57,95.43,97.13,95.37,98.59,59.52,90.12
UD_Slovenian-SST,90.24,45.63,96.2,84.32,90.02,,,90.95,,89.18,90.38,91.26,94.62,93.11,95.64,54.88,82.28
UD_Spanish-AnCora,97.98,84.72,99.4,98.34,98.22,,,98.5,,98.58,98.83,98.31,98.91,98.43,99.27,51.37,95.35
UD_Spanish-GSD,96.78,85.06,98.08,96.77,97.1,97.02,,97.37,,97.3,97.47,96.97,97.7,97.04,98.03,58.73,93.95
UD_Swedish-LinES,96.24,66.81,97.67,93.5,93.59,,,94.86,,94.64,95.5,94.4,97.09,94.25,97.41,60.59,89.99
UD_Swedish-PUD,95.43,41.72,97.25,90.44,89.8,,,91.92,,92.16,93.12,93.42,96.72,94.18,97.4,56.24,90.49
UD_Swedish-Talbanken,98.16,73.05,99.05,96.17,95.9,95.84,,97.2,97.02,96.99,97.37,96.56,98.2,95.9,98.91,66.28,92.65
UD_Tagalog-TRG,79.7,41.13,95.04,63.83,92.75,,,80,,70.5,0,75.36,91.3,91.3,95.04,53.69,87.07
UD_Tamil-TTB,88.48,47.54,95.64,88.43,89.77,,,91.97,,87.09,0,90.61,91.29,89.57,96,66.08,89.22
UD_Turkish-IMST,91.37,47.29,95.38,88.07,90.43,,,95.48,95.43,94.15,93.65,93.84,95.58,94.12,96.3,59.68,86.1
UD_Turkish-PUD,89.47,44.09,94.43,83.71,90.54,,,92.23,,90.48,66.36,90.86,94.73,93.71,94.71,55.91,87.62
UD_Ukrainian-IU,94.23,52.07,98.1,90.8,92.79,92.36,,94.31,,93.91,94.85,93.53,96.42,92.31,97.89,54.09,86.81
UD_Upper_Sorbian-UFAL,76.85,33.93,92.54,71.42,81.21,,,87.98,,79.7,85.47,85.83,87.58,87.58,93.51,47.99,81.04
UD_Urdu-UDTB,92.21,77.83,93.45,90.95,92.16,,,91.02,,92.01,92.32,91.03,92.02,91.43,93.41,52.84,89.46
UD_Vietnamese-VTB,90.69,41.86,94.02,88.62,88.84,,,90.39,,89.13,89.47,87.73,87.45,86.82,92.92,53.92,78
UD_Yoruba-YTB,92.05,17.5,93.15,86.15,94.19,,,92.85,,68.99,0,93.11,93.27,93.27,92.97,41.85,85.47
,,,,,,,,,,,,,,,,,
,,,,,,,,,,,,,,,,,
,CBNU-01,CHARLES-MALTA-01,CHARLES-SAARLAND-02,CMU-02,CMU-DataAug-01,,,EDINBURGH-01,,ITU-01,NLPCUBE-01,OHIOSTATE-01,RUG-01,RUG-02,UFALPRAGUE-01,UNTHILTLING-02,BASELINE-TEST-00
Mean,91.83598131,58.81196262,96.01953271,88.97364486,91.31813084,,,92.89373832,,90.54121495,88.66626168,92.51485981,94.53925234,93.22299065,95.92429907,51.87009346,87.91560748
Median,95.16,62.26,97.68,92.68,93.11,,,94.88,,94.13,95.44,94.4,96.31,94.64,97.58,55.18,89.46